2007/contest_file/LCD_CTRL.vcd
$date
	Wed Feb 20 15:53:14 2019
$end
$version
	ModelSim Version 10.4a
$end
$timescale
	10ps
$end

$scope module test $end
$var parameter 32 ! IMAGE_N_PAT $end
$var parameter 32 " CMD_N_PAT $end
$var parameter 32 # OUT_LENGTH $end
$var parameter 32 $ t_reset $end
$var reg 1 % clk $end
$var reg 1 & reset $end
$var reg 8 ' datain [7:0] $end
$var reg 3 ( cmd [2:0] $end
$var reg 1 ) cmd_valid $end
$var wire 1 * dataout [7] $end
$var wire 1 + dataout [6] $end
$var wire 1 , dataout [5] $end
$var wire 1 - dataout [4] $end
$var wire 1 . dataout [3] $end
$var wire 1 / dataout [2] $end
$var wire 1 0 dataout [1] $end
$var wire 1 1 dataout [0] $end
$var wire 1 2 output_valid $end
$var wire 1 3 busy $end
$var reg 8 4 out_temp [7:0] $end
$var reg 1 5 stop $end
$var integer 32 6 i $end
$var integer 32 7 j $end
$var integer 32 8 out_f $end
$var integer 32 9 err $end
$var integer 32 : pattern_num $end
$var reg 1 ; over $end

$scope module top $end
$var wire 1 < clk $end
$var wire 1 = reset $end
$var wire 1 > datain [7] $end
$var wire 1 ? datain [6] $end
$var wire 1 @ datain [5] $end
$var wire 1 A datain [4] $end
$var wire 1 B datain [3] $end
$var wire 1 C datain [2] $end
$var wire 1 D datain [1] $end
$var wire 1 E datain [0] $end
$var wire 1 F cmd [2] $end
$var wire 1 G cmd [1] $end
$var wire 1 H cmd [0] $end
$var wire 1 I cmd_valid $end
$var reg 8 J dataout [7:0] $end
$var reg 1 K output_valid $end
$var reg 1 L busy $end
$var reg 3 M row [2:0] $end
$var reg 3 N col [2:0] $end
$var reg 3 O row0 [2:0] $end
$var reg 3 P col0 [2:0] $end
$var reg 3 Q rowi [2:0] $end
$var reg 3 R coli [2:0] $end
$var reg 3 S state [2:0] $end
$var reg 4 T out_cnt [3:0] $end
$var reg 6 U in_cnt [5:0] $end
$var integer 32 V i $end
$upscope $end
$upscope $end
$enddefinitions $end
#0
$dumpvars
0%
0&
bx '
bx (
0)
bx 4
05
0;
bx J
xK
xL
bx M
bx N
bx O
bx P
bx Q
bx R
bx S
bx T
bx U
b100100 !
b11110 "
b100001110 #
b11001000 $
bx 6
bx 7
b10 8
b0 9
b0 :
bx V
x1
x0
x/
x.
x-
x,
x+
x*
x2
x3
0I
xH
xG
xF
xE
xD
xC
xB
xA
x@
x?
x>
0=
0<
$end
#5000
1%
1<
b1100110 4
#10000
0%
0<
1&
1=
b0 V
b1 V
b10 V
b11 V
b100 V
b101 V
b110 V
b111 V
b1000 V
b1001 V
b1010 V
b1011 V
b1100 V
b1101 V
b1110 V
b1111 V
b10000 V
b10001 V
b10010 V
b10011 V
b10100 V
b10101 V
b10110 V
b10111 V
b11000 V
b11001 V
b11010 V
b11011 V
b11100 V
b11101 V
b11110 V
b11111 V
b100000 V
b100001 V
b100010 V
b100011 V
b100100 V
0L
0K
b10 O
b10 P
b0 S
03
02
#15000
1%
1<
b0 V
b1 V
b10 V
b11 V
b100 V
b101 V
b110 V
b111 V
b1000 V
b1001 V
b1010 V
b1011 V
b1100 V
b1101 V
b1110 V
b1111 V
b10000 V
b10001 V
b10010 V
b10011 V
b10100 V
b10101 V
b10110 V
b10111 V
b11000 V
b11001 V
b11010 V
b11011 V
b11100 V
b11101 V
b11110 V
b11111 V
b100000 V
b100001 V
b100010 V
b100011 V
b100100 V
#20000
0%
0<
#25000
1%
1<
b0 V
b1 V
b10 V
b11 V
b100 V
b101 V
b110 V
b111 V
b1000 V
b1001 V
b1010 V
b1011 V
b1100 V
b1101 V
b1110 V
b1111 V
b10000 V
b10001 V
b10010 V
b10011 V
b10100 V
b10101 V
b10110 V
b10111 V
b11000 V
b11001 V
b11010 V
b11011 V
b11100 V
b11101 V
b11110 V
b11111 V
b100000 V
b100001 V
b100010 V
b100011 V
b100100 V
#30000
0&
0%
0=
0<
b0 6
b1 (
1)
b0 7
1H
0G
0F
1I
#35000
1%
1<
b1 S
1L
b0 U
b0 T
b0 Q
b0 R
b10 M
b10 N
13
#40000
0%
0<
b100000 '
bz (
0)
b1 7
zH
zG
zF
0E
0D
0C
0B
0A
1@
0?
0>
0I
#45000
1%
1<
b1 R
b1 U
#50000
0%
0<
b1010111 '
b10 7
1E
1D
1C
1A
0@
1?
#55000
1%
1<
b10 R
b10 U
#60000
0%
0<
b110000 '
b11 7
0E
0D
0C
1@
0?
#65000
1%
1<
b11 R
b11 U
#70000
0%
0<
b11101011 '
b100 7
1E
1D
1B
0A
1?
1>
#75000
1%
1<
b100 R
b100 U
#80000
0%
0<
b10101111 '
b101 7
1C
0?
#85000
1%
1<
b101 R
b101 U
#90000
0%
0<
b11101100 '
b110 7
0E
0D
1?
#95000
1%
1<
b1 Q
b0 R
b110 U
#100000
0%
0<
b1001001 '
b111 7
1E
0C
0@
0>
#105000
1%
1<
b1 R
b111 U
#110000
0%
0<
b10010011 '
b1000 7
1D
0B
1A
0?
1>
#115000
1%
1<
b10 R
b1000 U
#120000
0%
0<
b100010 '
b1001 7
0E
0A
1@
0>
#125000
1%
1<
b11 R
b1001 U
#130000
0%
0<
b1100111 '
b1010 7
1E
1C
1?
#135000
1%
1<
b100 R
b1010 U
#140000
0%
0<
b10100000 '
b1011 7
0E
0D
0C
0?
1>
#145000
1%
1<
b101 R
b1011 U
#150000
0%
0<
b101 '
b1100 7
1E
1C
0@
0>
#155000
1%
1<
b10 Q
b0 R
b1100 U
#160000
0%
0<
b1000100 '
b1101 7
0E
1?
#165000
1%
1<
b1 R
b1101 U
#170000
0%
0<
b1100010 '
b1110 7
1D
0C
1@
#175000
1%
1<
b10 R
b1110 U
#180000
0%
0<
b1100110 '
b1111 7
1C
#185000
1%
1<
b11 R
b1111 U
#190000
0%
0<
b11001100 '
b10000 7
0D
1B
0@
1>
#195000
1%
1<
b100 R
b10000 U
#200000
0%
0<
b1110110 '
b10001 7
1D
0B
1A
1@
0>
#205000
1%
1<
b101 R
b10001 U
#210000
0%
0<
b10010111 '
b10010 7
1E
0@
0?
1>
#215000
1%
1<
b11 Q
b0 R
b10010 U
#220000
0%
0<
b101000 '
b10011 7
0E
0D
0C
1B
0A
1@
0>
#225000
1%
1<
b1 R
b10011 U
#230000
0%
0<
b1001 '
b10100 7
1E
0@
#235000
1%
1<
b10 R
b10100 U
#240000
0%
0<
b11111111 '
b10101 7
1D
1C
1A
1@
1?
1>
#245000
1%
1<
b11 R
b10101 U
#250000
0%
0<
b1000000 '
b10110 7
0E
0D
0C
0B
0A
0@
0>
#255000
1%
1<
b100 R
b10110 U
#260000
0%
0<
b11000 '
b10111 7
1B
1A
0?
#265000
1%
1<
b101 R
b10111 U
#270000
0%
0<
b10000000 '
b11000 7
0B
0A
1>
#275000
1%
1<
b100 Q
b0 R
b11000 U
#280000
0%
0<
b11110000 '
b11001 7
1A
1@
1?
#285000
1%
1<
b1 R
b11001 U
#290000
0%
0<
b11101001 '
b11010 7
1E
1B
0A
#295000
1%
1<
b10 R
b11010 U
#300000
0%
0<
b11101010 '
b11011 7
0E
1D
#305000
1%
1<
b11 R
b11011 U
#310000
0%
0<
b10000111 '
b11100 7
1E
1C
0B
0@
0?
#315000
1%
1<
b100 R
b11100 U
#320000
0%
0<
b11011101 '
b11101 7
0D
1B
1A
1?
#325000
1%
1<
b101 R
b11101 U
#330000
0%
0<
b11101101 '
b11110 7
0A
1@
#335000
1%
1<
b101 Q
b0 R
b11110 U
#340000
0%
0<
b11010100 '
b11111 7
0E
0B
1A
0@
#345000
1%
1<
b1 R
b11111 U
#350000
0%
0<
b11010011 '
b100000 7
1E
1D
0C
#355000
1%
1<
b10 R
b100000 U
#360000
0%
0<
b10111011 '
b100001 7
1B
1@
0?
#365000
1%
1<
b11 R
b100001 U
#370000
0%
0<
b11110100 '
b100010 7
0E
0D
1C
0B
1?
#375000
1%
1<
b100 R
b100010 U
#380000
0%
0<
b1110111 '
b100011 7
1E
1D
0>
#385000
1%
1<
b101 R
b100011 U
#390000
0%
0<
b1010010 '
b100100 7
0E
0C
0@
#395000
1%
1<
b110 Q
b0 R
b100100 U
#400000
0%
0<
bx '
b100101 7
b1 6
bz '
zE
zD
zC
zB
zA
z@
z?
z>
#405000
1%
1<
b1100110 J
b11 N
b1 T
1K
01
10
1/
0.
0-
1,
1+
0*
12
#410000
0%
0<
#415000
1%
1<
b1 :
b11001100 J
b100 N
b10 T
00
1.
0,
1*
#420000
0%
0<
#425000
1%
1<
b11001100 4
b10 :
b1110110 J
b11 M
b10 N
b11 T
10
0.
1-
1,
0*
#430000
0%
0<
#435000
1%
1<
b1110110 4
b11 :
b11111111 J
b11 N
b100 T
11
1.
1*
#440000
0%
0<
#445000
1%
1<
b11111111 4
b100 :
b1000000 J
b100 N
b101 T
01
00
0/
0.
0-
0,
0*
#450000
0%
0<
#455000
1%
1<
b1000000 4
b101 :
b11000 J
b100 M
b10 N
b110 T
1.
1-
0+
#460000
0%
0<
#465000
1%
1<
b11000 4
b110 :
b11101010 J
b11 N
b111 T
10
0-
1,
1+
1*
#470000
0%
0<
#475000
1%
1<
b11101010 4
b111 :
b10000111 J
b100 N
b1000 T
11
1/
0.
0,
0+
#480000
0%
0<
#485000
1%
1<
b10000111 4
b1000 :
b11011101 J
b101 M
b10 N
b1001 T
00
1.
1-
1+
#490000
0%
0<
#495000
1%
1<
b11011101 4
b1001 :
b0 J
b110 M
0K
0L
01
0/
0.
0-
0+
0*
02
03
#500000
0%
0<
b1 (
1)
b0 7
1H
0G
0F
1I
#505000
1%
1<
b1100110 4
1L
b0 U
b0 T
b0 Q
b10 M
13
#510000
0%
0<
b100000 '
bz (
0)
b1 7
zH
zG
zF
0E
0D
0C
0B
0A
1@
0?
0>
0I
#515000
1%
1<
b1 R
b1 U
#520000
0%
0<
b1010111 '
b10 7
1E
1D
1C
1A
0@
1?
#525000
1%
1<
b10 R
b10 U
#530000
0%
0<
b110000 '
b11 7
0E
0D
0C
1@
0?
#535000
1%
1<
b11 R
b11 U
#540000
0%
0<
b11101011 '
b100 7
1E
1D
1B
0A
1?
1>
#545000
1%
1<
b100 R
b100 U
#550000
0%
0<
b10101111 '
b101 7
1C
0?
#555000
1%
1<
b101 R
b101 U
#560000
0%
0<
b11101100 '
b110 7
0E
0D
1?
#565000
1%
1<
b1 Q
b0 R
b110 U
#570000
0%
0<
b1001001 '
b111 7
1E
0C
0@
0>
#575000
1%
1<
b1 R
b111 U
#580000
0%
0<
b10010011 '
b1000 7
1D
0B
1A
0?
1>
#585000
1%
1<
b10 R
b1000 U
#590000
0%
0<
b100010 '
b1001 7
0E
0A
1@
0>
#595000
1%
1<
b11 R
b1001 U
#600000
0%
0<
b1100111 '
b1010 7
1E
1C
1?
#605000
1%
1<
b100 R
b1010 U
#610000
0%
0<
b10100000 '
b1011 7
0E
0D
0C
0?
1>
#615000
1%
1<
b101 R
b1011 U
#620000
0%
0<
b101 '
b1100 7
1E
1C
0@
0>
#625000
1%
1<
b10 Q
b0 R
b1100 U
#630000
0%
0<
b1000100 '
b1101 7
0E
1?
#635000
1%
1<
b1 R
b1101 U
#640000
0%
0<
b1100010 '
b1110 7
1D
0C
1@
#645000
1%
1<
b10 R
b1110 U
#650000
0%
0<
b1100110 '
b1111 7
1C
#655000
1%
1<
b11 R
b1111 U
#660000
0%
0<
b11001100 '
b10000 7
0D
1B
0@
1>
#665000
1%
1<
b100 R
b10000 U
#670000
0%
0<
b1110110 '
b10001 7
1D
0B
1A
1@
0>
#675000
1%
1<
b101 R
b10001 U
#680000
0%
0<
b10010111 '
b10010 7
1E
0@
0?
1>
#685000
1%
1<
b11 Q
b0 R
b10010 U
#690000
0%
0<
b101000 '
b10011 7
0E
0D
0C
1B
0A
1@
0>
#695000
1%
1<
b1 R
b10011 U
#700000
0%
0<
b1001 '
b10100 7
1E
0@
#705000
1%
1<
b10 R
b10100 U
#710000
0%
0<
b11111111 '
b10101 7
1D
1C
1A
1@
1?
1>
#715000
1%
1<
b11 R
b10101 U
#720000
0%
0<
b1000000 '
b10110 7
0E
0D
0C
0B
0A
0@
0>
#725000
1%
1<
b100 R
b10110 U
#730000
0%
0<
b11000 '
b10111 7
1B
1A
0?
#735000
1%
1<
b101 R
b10111 U
#740000
0%
0<
b10000000 '
b11000 7
0B
0A
1>
#745000
1%
1<
b100 Q
b0 R
b11000 U
#750000
0%
0<
b11110000 '
b11001 7
1A
1@
1?
#755000
1%
1<
b1 R
b11001 U
#760000
0%
0<
b11101001 '
b11010 7
1E
1B
0A
#765000
1%
1<
b10 R
b11010 U
#770000
0%
0<
b11101010 '
b11011 7
0E
1D
#775000
1%
1<
b11 R
b11011 U
#780000
0%
0<
b10000111 '
b11100 7
1E
1C
0B
0@
0?
#785000
1%
1<
b100 R
b11100 U
#790000
0%
0<
b11011101 '
b11101 7
0D
1B
1A
1?
#795000
1%
1<
b101 R
b11101 U
#800000
0%
0<
b11101101 '
b11110 7
0A
1@
#805000
1%
1<
b101 Q
b0 R
b11110 U
#810000
0%
0<
b11010100 '
b11111 7
0E
0B
1A
0@
#815000
1%
1<
b1 R
b11111 U
#820000
0%
0<
b11010011 '
b100000 7
1E
1D
0C
#825000
1%
1<
b10 R
b100000 U
#830000
0%
0<
b10111011 '
b100001 7
1B
1@
0?
#835000
1%
1<
b11 R
b100001 U
#840000
0%
0<
b11110100 '
b100010 7
0E
0D
1C
0B
1?
#845000
1%
1<
b100 R
b100010 U
#850000
0%
0<
b1110111 '
b100011 7
1E
1D
0>
#855000
1%
1<
b101 R
b100011 U
#860000
0%
0<
b1010010 '
b100100 7
0E
0C
0@
#865000
1%
1<
b110 Q
b0 R
b100100 U
#870000
0%
0<
bx '
b100101 7
b10 6
bz '
zE
zD
zC
zB
zA
z@
z?
z>
#875000
1%
1<
b1100110 J
b11 N
b1 T
1K
10
1/
1,
1+
12
#880000
0%
0<
#885000
1%
1<
b1010 :
b11001100 J
b100 N
b10 T
00
1.
0,
1*
#890000
0%
0<
#895000
1%
1<
b11001100 4
b1011 :
b1110110 J
b11 M
b10 N
b11 T
10
0.
1-
1,
0*
#900000
0%
0<
#905000
1%
1<
b1110110 4
b1100 :
b11111111 J
b11 N
b100 T
11
1.
1*
#910000
0%
0<
#915000
1%
1<
b11111111 4
b1101 :
b1000000 J
b100 N
b101 T
01
00
0/
0.
0-
0,
0*
#920000
0%
0<
#925000
1%
1<
b1000000 4
b1110 :
b11000 J
b100 M
b10 N
b110 T
1.
1-
0+
#930000
0%
0<
#935000
1%
1<
b11000 4
b1111 :
b11101010 J
b11 N
b111 T
10
0-
1,
1+
1*
#940000
0%
0<
#945000
1%
1<
b11101010 4
b10000 :
b10000111 J
b100 N
b1000 T
11
1/
0.
0,
0+
#950000
0%
0<
#955000
1%
1<
b10000111 4
b10001 :
b11011101 J
b101 M
b10 N
b1001 T
00
1.
1-
1+
#960000
0%
0<
#965000
1%
1<
b11011101 4
b10010 :
b0 J
b110 M
0K
0L
01
0/
0.
0-
0+
0*
02
03
#970000
0%
0<
b10 (
1)
0H
1G
0F
1I
#975000
1%
1<
b11001100 4
b10 S
1L
b0 U
b0 T
b11 P
b10 M
b11 N
13
#980000
0%
0<
0)
b11 6
bz (
0I
zH
zG
zF
#985000
1%
1<
b11001100 J
b100 N
b1 T
1K
1/
1.
1+
1*
12
#990000
0%
0<
#995000
1%
1<
b10011 :
b1110110 J
b101 N
b10 T
10
0.
1-
1,
0*
#1000000
0%
0<
#1005000
1%
1<
b1110110 4
b10100 :
b10010111 J
b11 M
b11 N
b11 T
11
0,
0+
1*
#1010000
0%
0<
#1015000
1%
1<
b10010111 4
b10101 :
b1000000 J
b100 N
b100 T
01
00
0/
0-
1+
0*
#1020000
0%
0<
#1025000
1%
1<
b1000000 4
b10110 :
b11000 J
b101 N
b101 T
1.
1-
0+
#1030000
0%
0<
#1035000
1%
1<
b11000 4
b10111 :
b10000000 J
b100 M
b11 N
b110 T
0.
0-
1*
#1040000
0%
0<
#1045000
1%
1<
b10000000 4
b11000 :
b10000111 J
b100 N
b111 T
11
10
1/
#1050000
0%
0<
#1055000
1%
1<
b10000111 4
b11001 :
b11011101 J
b101 N
b1000 T
00
1.
1-
1+
#1060000
0%
0<
#1065000
1%
1<
b11011101 4
b11010 :
b11101101 J
b101 M
b11 N
b1001 T
0-
1,
#1070000
0%
0<
#1075000
1%
1<
b11101101 4
b11011 :
b0 J
b110 M
0K
0L
01
0/
0.
0,
0+
0*
02
03
#1080000
0%
0<
b10 (
1)
0H
1G
0F
1I
#1085000
1%
1<
b11001100 4
1L
b0 T
b10 M
13
#1090000
0%
0<
0)
b100 6
bz (
0I
zH
zG
zF
#1095000
1%
1<
b11001100 J
b100 N
b1 T
1K
1/
1.
1+
1*
12
#1100000
0%
0<
#1105000
1%
1<
b11100 :
b1110110 J
b101 N
b10 T
10
0.
1-
1,
0*
#1110000
0%
0<
#1115000
1%
1<
b1110110 4
b11101 :
b10010111 J
b11 M
b11 N
b11 T
11
0,
0+
1*
#1120000
0%
0<
#1125000
1%
1<
b10010111 4
b11110 :
b1000000 J
b100 N
b100 T
01
00
0/
0-
1+
0*
#1130000
0%
0<
#1135000
1%
1<
b1000000 4
b11111 :
b11000 J
b101 N
b101 T
1.
1-
0+
#1140000
0%
0<
#1145000
1%
1<
b11000 4
b100000 :
b10000000 J
b100 M
b11 N
b110 T
0.
0-
1*
#1150000
0%
0<
#1155000
1%
1<
b10000000 4
b100001 :
b10000111 J
b100 N
b111 T
11
10
1/
#1160000
0%
0<
#1165000
1%
1<
b10000111 4
b100010 :
b11011101 J
b101 N
b1000 T
00
1.
1-
1+
#1170000
0%
0<
#1175000
1%
1<
b11011101 4
b100011 :
b11101101 J
b101 M
b11 N
b1001 T
0-
1,
#1180000
0%
0<
#1185000
1%
1<
b11101101 4
b100100 :
b0 J
b110 M
0K
0L
01
0/
0.
0,
0+
0*
02
03
#1190000
0%
0<
b101 (
1)
1H
0G
1F
1I
#1195000
1%
1<
b1000000 4
b101 S
1L
b0 T
b11 O
b11 M
13
#1200000
0%
0<
0)
b101 6
bz (
0I
zH
zG
zF
#1205000
1%
1<
b1000000 J
b100 N
b1 T
1K
1+
12
#1210000
0%
0<
#1215000
1%
1<
b100101 :
b11000 J
b101 N
b10 T
1.
1-
0+
#1220000
0%
0<
#1225000
1%
1<
b11000 4
b100110 :
b10000000 J
b100 M
b11 N
b11 T
0.
0-
1*
#1230000
0%
0<
#1235000
1%
1<
b10000000 4
b100111 :
b10000111 J
b100 N
b100 T
11
10
1/
#1240000
0%
0<
#1245000
1%
1<
b10000111 4
b101000 :
b11011101 J
b101 N
b101 T
00
1.
1-
1+
#1250000
0%
0<
#1255000
1%
1<
b11011101 4
b101001 :
b11101101 J
b101 M
b11 N
b110 T
0-
1,
#1260000
0%
0<
#1265000
1%
1<
b11101101 4
b101010 :
b11110100 J
b100 N
b111 T
01
0.
1-
#1270000
0%
0<
#1275000
1%
1<
b11110100 4
b101011 :
b1110111 J
b101 N
b1000 T
11
10
0*
#1280000
0%
0<
#1285000
1%
1<
b1110111 4
b101100 :
b1010010 J
b110 M
b11 N
b1001 T
01
0/
0,
#1290000
0%
0<
#1295000
1%
1<
b1010010 4
b101101 :
b0 J
b111 M
0K
0L
00
0-
0+
02
03
#1300000
0%
0<
b101 (
1)
1H
0G
1F
1I
#1305000
1%
1<
b1000000 4
1L
b0 T
b11 M
13
#1310000
0%
0<
0)
b110 6
bz (
0I
zH
zG
zF
#1315000
1%
1<
b1000000 J
b100 N
b1 T
1K
1+
12
#1320000
0%
0<
#1325000
1%
1<
b101110 :
b11000 J
b101 N
b10 T
1.
1-
0+
#1330000
0%
0<
#1335000
1%
1<
b11000 4
b101111 :
b10000000 J
b100 M
b11 N
b11 T
0.
0-
1*
#1340000
0%
0<
#1345000
1%
1<
b10000000 4
b110000 :
b10000111 J
b100 N
b100 T
11
10
1/
#1350000
0%
0<
#1355000
1%
1<
b10000111 4
b110001 :
b11011101 J
b101 N
b101 T
00
1.
1-
1+
#1360000
0%
0<
#1365000
1%
1<
b11011101 4
b110010 :
b11101101 J
b101 M
b11 N
b110 T
0-
1,
#1370000
0%
0<
#1375000
1%
1<
b11101101 4
b110011 :
b11110100 J
b100 N
b111 T
01
0.
1-
#1380000
0%
0<
#1385000
1%
1<
b11110100 4
b110100 :
b1110111 J
b101 N
b1000 T
11
10
0*
#1390000
0%
0<
#1395000
1%
1<
b1110111 4
b110101 :
b1010010 J
b110 M
b11 N
b1001 T
01
0/
0,
#1400000
0%
0<
#1405000
1%
1<
b1010010 4
b110110 :
b0 J
b111 M
0K
0L
00
0-
0+
02
03
#1410000
0%
0<
b11 (
1)
1H
1G
0F
1I
#1415000
1%
1<
b11111111 4
b11 S
1L
b0 T
b10 P
b11 M
b10 N
13
#1420000
0%
0<
0)
b111 6
bz (
0I
zH
zG
zF
#1425000
1%
1<
b11111111 J
b11 N
b1 T
1K
11
10
1/
1.
1-
1,
1+
1*
12
#1430000
0%
0<
#1435000
1%
1<
b110111 :
b1000000 J
b100 N
b10 T
01
00
0/
0.
0-
0,
0*
#1440000
0%
0<
#1445000
1%
1<
b1000000 4
b111000 :
b11000 J
b100 M
b10 N
b11 T
1.
1-
0+
#1450000
0%
0<
#1455000
1%
1<
b11000 4
b111001 :
b11101010 J
b11 N
b100 T
10
0-
1,
1+
1*
#1460000
0%
0<
#1465000
1%
1<
b11101010 4
b111010 :
b10000111 J
b100 N
b101 T
11
1/
0.
0,
0+
#1470000
0%
0<
#1475000
1%
1<
b10000111 4
b111011 :
b11011101 J
b101 M
b10 N
b110 T
00
1.
1-
1+
#1480000
0%
0<
#1485000
1%
1<
b11011101 4
b111100 :
b10111011 J
b11 N
b111 T
10
0/
1,
0+
#1490000
0%
0<
#1495000
1%
1<
b10111011 4
b111101 :
b11110100 J
b100 N
b1000 T
01
00
1/
0.
1+
#1500000
0%
0<
#1505000
1%
1<
b11110100 4
b111110 :
b1110111 J
b110 M
b10 N
b1001 T
11
10
0*
#1510000
0%
0<
#1515000
1%
1<
b1110111 4
b111111 :
b0 J
b111 M
0K
0L
01
00
0/
0-
0,
0+
02
03
#1520000
0%
0<
b101 (
1)
1H
0G
1F
1I
#1525000
1%
1<
b11111111 4
b101 S
1L
b0 T
b11 M
13
#1530000
0%
0<
0)
b1000 6
bz (
0I
zH
zG
zF
#1535000
1%
1<
b11111111 J
b11 N
b1 T
1K
11
10
1/
1.
1-
1,
1+
1*
12
#1540000
0%
0<
#1545000
1%
1<
b1000000 :
b1000000 J
b100 N
b10 T
01
00
0/
0.
0-
0,
0*
#1550000
0%
0<
#1555000
1%
1<
b1000000 4
b1000001 :
b11000 J
b100 M
b10 N
b11 T
1.
1-
0+
#1560000
0%
0<
#1565000
1%
1<
b11000 4
b1000010 :
b11101010 J
b11 N
b100 T
10
0-
1,
1+
1*
#1570000
0%
0<
#1575000
1%
1<
b11101010 4
b1000011 :
b10000111 J
b100 N
b101 T
11
1/
0.
0,
0+
#1580000
0%
0<
#1585000
1%
1<
b10000111 4
b1000100 :
b11011101 J
b101 M
b10 N
b110 T
00
1.
1-
1+
#1590000
0%
0<
#1595000
1%
1<
b11011101 4
b1000101 :
b10111011 J
b11 N
b111 T
10
0/
1,
0+
#1600000
0%
0<
#1605000
1%
1<
b10111011 4
b1000110 :
b11110100 J
b100 N
b1000 T
01
00
1/
0.
1+
#1610000
0%
0<
#1615000
1%
1<
b11110100 4
b1000111 :
b1110111 J
b110 M
b10 N
b1001 T
11
10
0*
#1620000
0%
0<
#1625000
1%
1<
b1110111 4
b1001000 :
b0 J
b111 M
0K
0L
01
00
0/
0-
0,
0+
02
03
#1630000
0%
0<
b11 (
1)
1H
1G
0F
1I
#1635000
1%
1<
b1001 4
b11 S
1L
b0 T
b1 P
b11 M
b1 N
13
#1640000
0%
0<
0)
b1001 6
bz (
0I
zH
zG
zF
#1645000
1%
1<
b1001 J
b10 N
b1 T
1K
11
1.
12
#1650000
0%
0<
#1655000
1%
1<
b1001001 :
b11111111 J
b11 N
b10 T
10
1/
1-
1,
1+
1*
#1660000
0%
0<
#1665000
1%
1<
b11111111 4
b1001010 :
b1000000 J
b100 M
b1 N
b11 T
01
00
0/
0.
0-
0,
0*
#1670000
0%
0<
#1675000
1%
1<
b1000000 4
b1001011 :
b11101001 J
b10 N
b100 T
11
1.
1,
1*
#1680000
0%
0<
#1685000
1%
1<
b11101001 4
b1001100 :
b11101010 J
b11 N
b101 T
01
10
#1690000
0%
0<
#1695000
1%
1<
b11101010 4
b1001101 :
b10000111 J
b101 M
b1 N
b110 T
11
1/
0.
0,
0+
#1700000
0%
0<
#1705000
1%
1<
b10000111 4
b1001110 :
b11010011 J
b10 N
b111 T
0/
1-
1+
#1710000
0%
0<
#1715000
1%
1<
b11010011 4
b1001111 :
b10111011 J
b11 N
b1000 T
1.
1,
0+
#1720000
0%
0<
#1725000
1%
1<
b10111011 4
b1010000 :
b11110100 J
b110 M
b1 N
b1001 T
01
00
1/
0.
1+
#1730000
0%
0<
#1735000
1%
1<
b11110100 4
b1010001 :
b0 J
b111 M
0K
0L
0/
0-
0,
0+
0*
02
03
#1740000
0%
0<
b11 (
1)
1H
1G
0F
1I
#1745000
1%
1<
b101000 4
1L
b0 T
b0 P
b11 M
b0 N
13
#1750000
0%
0<
0)
b1010 6
bz (
0I
zH
zG
zF
#1755000
1%
1<
b101000 J
b1 N
b1 T
1K
1.
1,
12
#1760000
0%
0<
#1765000
1%
1<
b1010010 :
b1001 J
b10 N
b10 T
11
0,
#1770000
0%
0<
#1775000
1%
1<
b1001 4
b1010011 :
b11111111 J
b100 M
b0 N
b11 T
10
1/
1-
1,
1+
1*
#1780000
0%
0<
#1785000
1%
1<
b11111111 4
b1010100 :
b11110000 J
b1 N
b100 T
01
00
0/
0.
#1790000
0%
0<
#1795000
1%
1<
b11110000 4
b1010101 :
b11101001 J
b10 N
b101 T
11
1.
0-
#1800000
0%
0<
#1805000
1%
1<
b11101001 4
b1010110 :
b11101010 J
b101 M
b0 N
b110 T
01
10
#1810000
0%
0<
#1815000
1%
1<
b11101010 4
b1010111 :
b11010100 J
b1 N
b111 T
00
1/
0.
1-
0,
#1820000
0%
0<
#1825000
1%
1<
b11010100 4
b1011000 :
b11010011 J
b10 N
b1000 T
11
10
0/
#1830000
0%
0<
#1835000
1%
1<
b11010011 4
b1011001 :
b10111011 J
b110 M
b0 N
b1001 T
1.
1,
0+
#1840000
0%
0<
#1845000
1%
1<
b10111011 4
b1011010 :
b0 J
b111 M
0K
0L
01
00
0.
0-
0,
0*
02
03
#1850000
0%
0<
b100 (
1)
0H
0G
1F
1I
#1855000
1%
1<
b1000100 4
b100 S
1L
b0 T
b10 O
b10 M
13
#1860000
0%
0<
0)
b1011 6
bz (
0I
zH
zG
zF
#1865000
1%
1<
b1000100 J
b1 N
b1 T
1K
1/
1+
12
#1870000
0%
0<
#1875000
1%
1<
b1011011 :
b1100010 J
b10 N
b10 T
10
0/
1,
#1880000
0%
0<
#1885000
1%
1<
b1100010 4
b1011100 :
b1100110 J
b11 M
b0 N
b11 T
1/
#1890000
0%
0<
#1895000
1%
1<
b1100110 4
b1011101 :
b101000 J
b1 N
b100 T
00
0/
1.
0+
#1900000
0%
0<
#1905000
1%
1<
b101000 4
b1011110 :
b1001 J
b10 N
b101 T
11
0,
#1910000
0%
0<
#1915000
1%
1<
b1001 4
b1011111 :
b11111111 J
b100 M
b0 N
b110 T
10
1/
1-
1,
1+
1*
#1920000
0%
0<
#1925000
1%
1<
b11111111 4
b1100000 :
b11110000 J
b1 N
b111 T
01
00
0/
0.
#1930000
0%
0<
#1935000
1%
1<
b11110000 4
b1100001 :
b11101001 J
b10 N
b1000 T
11
1.
0-
#1940000
0%
0<
#1945000
1%
1<
b11101001 4
b1100010 :
b11101010 J
b101 M
b0 N
b1001 T
01
10
#1950000
0%
0<
#1955000
1%
1<
b11101010 4
b1100011 :
b0 J
b110 M
0K
0L
00
0.
0,
0+
0*
02
03
#1960000
0%
0<
b100 (
1)
0H
0G
1F
1I
#1965000
1%
1<
b1001001 4
1L
b0 T
b1 O
b1 M
13
#1970000
0%
0<
0)
b1100 6
bz (
0I
zH
zG
zF
#1975000
1%
1<
b1001001 J
b1 N
b1 T
1K
11
1.
1+
12
#1980000
0%
0<
#1985000
1%
1<
b1100100 :
b10010011 J
b10 N
b10 T
10
0.
1-
0+
1*
#1990000
0%
0<
#1995000
1%
1<
b10010011 4
b1100101 :
b100010 J
b10 M
b0 N
b11 T
01
0-
1,
0*
#2000000
0%
0<
#2005000
1%
1<
b100010 4
b1100110 :
b1000100 J
b1 N
b100 T
00
1/
0,
1+
#2010000
0%
0<
#2015000
1%
1<
b1000100 4
b1100111 :
b1100010 J
b10 N
b101 T
10
0/
1,
#2020000
0%
0<
#2025000
1%
1<
b1100010 4
b1101000 :
b1100110 J
b11 M
b0 N
b110 T
1/
#2030000
0%
0<
#2035000
1%
1<
b1100110 4
b1101001 :
b101000 J
b1 N
b111 T
00
0/
1.
0+
#2040000
0%
0<
#2045000
1%
1<
b101000 4
b1101010 :
b1001 J
b10 N
b1000 T
11
0,
#2050000
0%
0<
#2055000
1%
1<
b1001 4
b1101011 :
b11111111 J
b100 M
b0 N
b1001 T
10
1/
1-
1,
1+
1*
#2060000
0%
0<
#2065000
1%
1<
b11111111 4
b1101100 :
b0 J
b101 M
0K
0L
01
00
0/
0.
0-
0,
0+
0*
02
03
#2070000
0%
0<
b11 (
1)
1H
1G
0F
1I
#2075000
1%
1<
b1001001 4
b11 S
1L
b0 T
b1 M
13
#2080000
0%
0<
0)
b1101 6
bz (
0I
zH
zG
zF
